<?xml version="1.0" encoding="UTF-8"?>
<robot generated="20170925 16:57:33.174" generator="Robot 3.0.2 (Python 2.7.13 on win32)">
<suite source="C:\front-office\Tests\Front_Office.robot" id="s1" name="Front Office">
<test id="s1-t1" name="Should be access Team page">
<kw type="setup" name="Begin The Test" library="CommonWeb">
<kw name="Open Browser" library="Selenium2Library">
<doc>Opens a new browser instance to given URL.</doc>
<arguments>
<arg>about:blank</arg>
<arg>${BROSWER}</arg>
</arguments>
<msg timestamp="20170925 16:57:33.352" level="INFO">Opening browser 'gc' to base url 'about:blank'</msg>
<status status="PASS" endtime="20170925 16:57:35.343" starttime="20170925 16:57:33.352"></status>
</kw>
<kw name="Maximize Browser Window" library="Selenium2Library">
<doc>Maximizes current browser window.</doc>
<status status="PASS" endtime="20170925 16:57:36.483" starttime="20170925 16:57:35.344"></status>
</kw>
<status status="PASS" endtime="20170925 16:57:36.483" starttime="20170925 16:57:33.352"></status>
</kw>
<kw name="Go to Landing page" library="FrontOfficeAPP">
<kw name="Navigate to" library="Landing">
<kw name="Go To" library="Selenium2Library">
<doc>Navigates the active browser instance to the provided URL.</doc>
<arguments>
<arg>${START_URL}</arg>
</arguments>
<msg timestamp="20170925 16:57:36.483" level="INFO">Opening url 'http://www.robotframeworktutorial.com/front-office/'</msg>
<status status="PASS" endtime="20170925 16:57:39.956" starttime="20170925 16:57:36.483"></status>
</kw>
<status status="PASS" endtime="20170925 16:57:39.956" starttime="20170925 16:57:36.483"></status>
</kw>
<kw name="Verify Page Load" library="Landing">
<kw name="Wait Until Page Contains Element" library="Selenium2Library">
<doc>Waits until element specified with `locator` appears on current page.</doc>
<arguments>
<arg>${LANDING_NAVIGATEION}</arg>
</arguments>
<status status="PASS" endtime="20170925 16:57:39.979" starttime="20170925 16:57:39.957"></status>
</kw>
<status status="PASS" endtime="20170925 16:57:39.980" starttime="20170925 16:57:39.956"></status>
</kw>
<status status="PASS" endtime="20170925 16:57:39.980" starttime="20170925 16:57:36.483"></status>
</kw>
<kw name="Go to &quot;Team&quot; page" library="FrontOfficeAPP">
<kw name="Select &quot;Team&quot; page" library="TopNav">
<kw name="Click Element" library="Selenium2Library">
<doc>Click element identified by `locator`.</doc>
<arguments>
<arg>${TOPNAV_TEAM_LINK}</arg>
</arguments>
<msg timestamp="20170925 16:57:39.982" level="INFO">Clicking element '//*[text()='Team']'.</msg>
<status status="PASS" endtime="20170925 16:57:40.063" starttime="20170925 16:57:39.982"></status>
</kw>
<kw name="Sleep" library="BuiltIn">
<doc>Pauses the test executed for the given time.</doc>
<arguments>
<arg>3s</arg>
</arguments>
<msg timestamp="20170925 16:57:43.077" level="INFO">Slept 3 seconds</msg>
<status status="PASS" endtime="20170925 16:57:43.077" starttime="20170925 16:57:40.063"></status>
</kw>
<status status="PASS" endtime="20170925 16:57:43.077" starttime="20170925 16:57:39.981"></status>
</kw>
<kw name="Verify Page Load" library="Team">
<kw name="Wait Until Page Contains Element" library="Selenium2Library">
<doc>Waits until element specified with `locator` appears on current page.</doc>
<arguments>
<arg>${TEAM_HEADER_LABEL}</arg>
</arguments>
<status status="PASS" endtime="20170925 16:57:43.092" starttime="20170925 16:57:43.077"></status>
</kw>
<status status="PASS" endtime="20170925 16:57:43.092" starttime="20170925 16:57:43.077"></status>
</kw>
<status status="PASS" endtime="20170925 16:57:43.092" starttime="20170925 16:57:39.981"></status>
</kw>
<kw type="teardown" name="End The Test" library="CommonWeb">
<kw name="Close Browser" library="Selenium2Library">
<doc>Closes the current browser.</doc>
<status status="PASS" endtime="20170925 16:57:44.294" starttime="20170925 16:57:43.092"></status>
</kw>
<status status="PASS" endtime="20170925 16:57:44.294" starttime="20170925 16:57:43.092"></status>
</kw>
<doc>This is testcase 1</doc>
<tags>
<tag>Smoke_test</tag>
</tags>
<status status="PASS" endtime="20170925 16:57:44.294" critical="yes" starttime="20170925 16:57:33.352"></status>
</test>
<test id="s1-t2" name="Team page should match requirements">
<kw type="setup" name="Begin The Test" library="CommonWeb">
<kw name="Open Browser" library="Selenium2Library">
<doc>Opens a new browser instance to given URL.</doc>
<arguments>
<arg>about:blank</arg>
<arg>${BROSWER}</arg>
</arguments>
<msg timestamp="20170925 16:57:44.294" level="INFO">Opening browser 'gc' to base url 'about:blank'</msg>
<status status="PASS" endtime="20170925 16:57:46.759" starttime="20170925 16:57:44.294"></status>
</kw>
<kw name="Maximize Browser Window" library="Selenium2Library">
<doc>Maximizes current browser window.</doc>
<status status="PASS" endtime="20170925 16:57:47.903" starttime="20170925 16:57:46.759"></status>
</kw>
<status status="PASS" endtime="20170925 16:57:47.903" starttime="20170925 16:57:44.294"></status>
</kw>
<kw name="Go to Landing page" library="FrontOfficeAPP">
<kw name="Navigate to" library="Landing">
<kw name="Go To" library="Selenium2Library">
<doc>Navigates the active browser instance to the provided URL.</doc>
<arguments>
<arg>${START_URL}</arg>
</arguments>
<msg timestamp="20170925 16:57:47.903" level="INFO">Opening url 'http://www.robotframeworktutorial.com/front-office/'</msg>
<status status="PASS" endtime="20170925 16:57:51.147" starttime="20170925 16:57:47.903"></status>
</kw>
<status status="PASS" endtime="20170925 16:57:51.148" starttime="20170925 16:57:47.903"></status>
</kw>
<kw name="Verify Page Load" library="Landing">
<kw name="Wait Until Page Contains Element" library="Selenium2Library">
<doc>Waits until element specified with `locator` appears on current page.</doc>
<arguments>
<arg>${LANDING_NAVIGATEION}</arg>
</arguments>
<status status="PASS" endtime="20170925 16:57:51.171" starttime="20170925 16:57:51.149"></status>
</kw>
<status status="PASS" endtime="20170925 16:57:51.171" starttime="20170925 16:57:51.148"></status>
</kw>
<status status="PASS" endtime="20170925 16:57:51.172" starttime="20170925 16:57:47.903"></status>
</kw>
<kw name="Go to &quot;Team&quot; page" library="FrontOfficeAPP">
<kw name="Select &quot;Team&quot; page" library="TopNav">
<kw name="Click Element" library="Selenium2Library">
<doc>Click element identified by `locator`.</doc>
<arguments>
<arg>${TOPNAV_TEAM_LINK}</arg>
</arguments>
<msg timestamp="20170925 16:57:51.173" level="INFO">Clicking element '//*[text()='Team']'.</msg>
<status status="PASS" endtime="20170925 16:57:51.255" starttime="20170925 16:57:51.173"></status>
</kw>
<kw name="Sleep" library="BuiltIn">
<doc>Pauses the test executed for the given time.</doc>
<arguments>
<arg>3s</arg>
</arguments>
<msg timestamp="20170925 16:57:54.261" level="INFO">Slept 3 seconds</msg>
<status status="PASS" endtime="20170925 16:57:54.261" starttime="20170925 16:57:51.255"></status>
</kw>
<status status="PASS" endtime="20170925 16:57:54.261" starttime="20170925 16:57:51.173"></status>
</kw>
<kw name="Verify Page Load" library="Team">
<kw name="Wait Until Page Contains Element" library="Selenium2Library">
<doc>Waits until element specified with `locator` appears on current page.</doc>
<arguments>
<arg>${TEAM_HEADER_LABEL}</arg>
</arguments>
<status status="PASS" endtime="20170925 16:57:54.282" starttime="20170925 16:57:54.261"></status>
</kw>
<status status="PASS" endtime="20170925 16:57:54.282" starttime="20170925 16:57:54.261"></status>
</kw>
<status status="PASS" endtime="20170925 16:57:54.282" starttime="20170925 16:57:51.172"></status>
</kw>
<kw name="Validate &quot;Team&quot; page" library="FrontOfficeAPP">
<kw name="Validate &quot;Team&quot; Page Content" library="Team">
<kw name="Get Text" library="Selenium2Library">
<doc>Returns the text value of element identified by `locator`.</doc>
<arguments>
<arg>${TEAM_HEADER_LABEL}</arg>
</arguments>
<assign>
<var>${ElementText}</var>
</assign>
<msg timestamp="20170925 16:57:54.314" level="INFO">${ElementText} = OUR AMAZING TEAM</msg>
<status status="PASS" endtime="20170925 16:57:54.314" starttime="20170925 16:57:54.282"></status>
</kw>
<kw name="Should Be Equal As Strings" library="BuiltIn">
<doc>Fails if objects are unequal after converting them to strings.</doc>
<arguments>
<arg>${ElementText}</arg>
<arg>Our Amazing Team</arg>
<arg>ignore_case=true</arg>
</arguments>
<status status="PASS" endtime="20170925 16:57:54.314" starttime="20170925 16:57:54.314"></status>
</kw>
<status status="PASS" endtime="20170925 16:57:54.314" starttime="20170925 16:57:54.282"></status>
</kw>
<status status="PASS" endtime="20170925 16:57:54.314" starttime="20170925 16:57:54.282"></status>
</kw>
<kw type="teardown" name="End The Test" library="CommonWeb">
<kw name="Close Browser" library="Selenium2Library">
<doc>Closes the current browser.</doc>
<status status="PASS" endtime="20170925 16:57:55.516" starttime="20170925 16:57:54.314"></status>
</kw>
<status status="PASS" endtime="20170925 16:57:55.516" starttime="20170925 16:57:54.314"></status>
</kw>
<doc>This is testcase 2</doc>
<tags>
<tag>Smoke_test</tag>
</tags>
<status status="PASS" endtime="20170925 16:57:55.516" critical="yes" starttime="20170925 16:57:44.294"></status>
</test>
<status status="PASS" endtime="20170925 16:57:55.516" starttime="20170925 16:57:33.190"></status>
</suite>
<statistics>
<total>
<stat fail="0" pass="2">Critical Tests</stat>
<stat fail="0" pass="2">All Tests</stat>
</total>
<tag>
<stat fail="0" pass="2">Smoke_test</stat>
</tag>
<suite>
<stat fail="0" id="s1" name="Front Office" pass="2">Front Office</stat>
</suite>
</statistics>
<errors>
</errors>
</robot>
